{
    "fluentMethods": true,
    "relationships": [
        {
            "relationshipType": "one-to-many",
            "relationshipName": "playing",
            "otherEntityName": "playing",
            "otherEntityRelationshipName": "theMode"
        }
    ],
    "fields": [
        {
            "fieldName": "name",
            "fieldType": "String",
            "fieldValidateRules": [
                "required"
            ]
        },
        {
            "fieldName": "abrStatic",
            "fieldType": "String",
            "fieldValidateRules": [
                "required"
            ]
        },
        {
            "fieldName": "fragment",
            "fieldType": "Integer",
            "fieldValidateRules": [
                "required"
            ]
        },
        {
            "fieldName": "suffixManifest",
            "fieldType": "String",
            "fieldValidateRules": [
                "required"
            ]
        },
        {
            "fieldName": "deviceProfil",
            "fieldType": "String",
            "fieldValidateRules": [
                "required"
            ]
        },
        {
            "fieldName": "clientVersion",
            "fieldType": "String"
        },
        {
            "fieldName": "typeManifest",
            "fieldType": "String"
        },
        {
            "fieldName": "description",
            "fieldType": "String"
        }
    ],
    "changelogDate": "20161223125145",
    "javadoc": "For playing",
    "entityTableName": "mode",
    "dto": "mapstruct",
    "pagination": "pagination",
    "service": "serviceImpl",
    "angularJSSuffix": "myAbstract"
}