{
    "fluentMethods": true,
    "relationships": [
        {
            "relationshipType": "many-to-one",
            "relationshipName": "lePod",
            "otherEntityName": "pod",
            "otherEntityField": "name"
        },
        {
            "relationshipType": "many-to-many",
            "relationshipName": "theChannels",
            "otherEntityName": "channels",
            "ownerSide": false,
            "otherEntityRelationshipName": "streamer"
        }
    ],
    "fields": [
        {
            "fieldName": "nameStreamer",
            "fieldType": "String",
            "fieldValidateRules": [
                "required"
            ]
        },
        {
            "fieldName": "address",
            "fieldType": "String",
            "fieldValidateRules": [
                "required"
            ]
        },
        {
            "fieldName": "description",
            "fieldType": "String"
        }
    ],
    "changelogDate": "20161223225736",
    "entityTableName": "streamer",
    "dto": "mapstruct",
    "pagination": "pagination",
    "service": "serviceImpl",
    "angularJSSuffix": "myAbstract"
}