{
    "fluentMethods": true,
    "relationships": [],
    "fields": [
        {
            "fieldName": "nameSmooth",
            "fieldType": "String",
            "fieldValidateRules": [
                "required"
            ]
        },
        {
            "fieldName": "majorVersion",
            "fieldType": "String"
        },
        {
            "fieldName": "minorVersion",
            "fieldType": "String"
        },
        {
            "fieldName": "duration",
            "fieldType": "String"
        },
        {
            "fieldName": "dvrWindowLength",
            "fieldType": "String"
        },
        {
            "fieldName": "lookAheadFragmentCount",
            "fieldType": "String"
        },
        {
            "fieldName": "isLive",
            "fieldType": "Boolean"
        },
        {
            "fieldName": "canSeek",
            "fieldType": "Boolean"
        },
        {
            "fieldName": "canPause",
            "fieldType": "Boolean"
        },
        {
            "fieldName": "dateManifest",
            "fieldType": "ZonedDateTime"
        },
        {
            "fieldName": "smoothOk",
            "fieldType": "Boolean"
        },
        {
            "fieldName": "manifestFile",
            "fieldType": "byte[]",
            "fieldTypeBlobContent": "any"
        },
        {
            "fieldName": "typeStreamIndex",
            "javadoc": "StreamIndex",
            "fieldType": "String"
        },
        {
            "fieldName": "nameVideo",
            "fieldType": "String"
        },
        {
            "fieldName": "nameAudio",
            "fieldType": "String"
        },
        {
            "fieldName": "nbrChunksVideo",
            "fieldType": "Integer"
        },
        {
            "fieldName": "nbrChunksAudio",
            "fieldType": "Integer"
        },
        {
            "fieldName": "chunksVideo",
            "fieldType": "String"
        },
        {
            "fieldName": "chunksAudio",
            "fieldType": "String"
        },
        {
            "fieldName": "qualityLevelsVideo",
            "fieldType": "String"
        },
        {
            "fieldName": "qualityLevelsAudio",
            "fieldType": "String"
        },
        {
            "fieldName": "maxWidthVideo",
            "fieldType": "String"
        },
        {
            "fieldName": "maxHeightVideo",
            "fieldType": "String"
        },
        {
            "fieldName": "maxWidthAudio",
            "javadoc": "QualityLevelVideo",
            "fieldType": "String"
        },
        {
            "fieldName": "maxHeightAudio",
            "fieldType": "String"
        },
        {
            "fieldName": "displayWidthVideo",
            "fieldType": "String"
        },
        {
            "fieldName": "displayHeightVideo",
            "fieldType": "String"
        },
        {
            "fieldName": "urlVideo",
            "fieldType": "String"
        },
        {
            "fieldName": "urlAudio",
            "fieldType": "String"
        },
        {
            "fieldName": "indexStrmAudio",
            "fieldType": "String"
        },
        {
            "fieldName": "language",
            "fieldType": "String"
        },
        {
            "fieldName": "indexQlityVideo",
            "javadoc": "QualityLevelAudio",
            "fieldType": "String"
        },
        {
            "fieldName": "indexQlityAudio",
            "fieldType": "String"
        },
        {
            "fieldName": "bitrateVideo",
            "fieldType": "String"
        },
        {
            "fieldName": "bitrateAudio",
            "fieldType": "String"
        },
        {
            "fieldName": "fourCcVideo",
            "fieldType": "String"
        },
        {
            "fieldName": "fourCcAudio",
            "fieldType": "String"
        },
        {
            "fieldName": "codecPrivateDataVideo",
            "fieldType": "String"
        },
        {
            "fieldName": "codecPrivateDataAudio",
            "fieldType": "String"
        },
        {
            "fieldName": "samplingRate",
            "fieldType": "String"
        },
        {
            "fieldName": "channels",
            "fieldType": "String"
        },
        {
            "fieldName": "bitsPerSample",
            "fieldType": "String"
        },
        {
            "fieldName": "packetSize",
            "fieldType": "String"
        },
        {
            "fieldName": "audioTag",
            "fieldType": "String"
        }
    ],
    "changelogDate": "20161125135313",
    "entityTableName": "smooth_streaming_media",
    "dto": "mapstruct",
    "pagination": "pagination",
    "service": "serviceImpl",
    "angularJSSuffix": "myAbstract"
}