{
    "fluentMethods": true,
    "relationships": [
        {
            "relationshipType": "many-to-many",
            "relationshipName": "cmdPlay",
            "otherEntityName": "playing",
            "ownerSide": false,
            "otherEntityRelationshipName": "listcommands"
        }
    ],
    "fields": [
        {
            "fieldName": "command",
            "fieldType": "String",
            "fieldValidateRules": [
                "required"
            ]
        },
        {
            "fieldName": "description",
            "fieldType": "String",
            "fieldValidateRules": [
                "required"
            ]
        }
    ],
    "changelogDate": "20161223225708",
    "entityTableName": "commande",
    "dto": "mapstruct",
    "pagination": "no",
    "service": "serviceImpl",
    "angularJSSuffix": "myAbstract"
}