{
    "fluentMethods": true,
    "relationships": [
        {
            "relationshipType": "one-to-many",
            "relationshipName": "manifest",
            "otherEntityName": "manifestData",
            "otherEntityRelationshipName": "nivImportance"
        }
    ],
    "fields": [
        {
            "fieldName": "niveau",
            "fieldType": "String",
            "fieldValidateRules": [
                "required"
            ]
        },
        {
            "fieldName": "description",
            "fieldType": "String",
            "fieldValidateRules": [
                "required"
            ]
        },
        {
            "fieldName": "icone",
            "fieldType": "byte[]",
            "fieldTypeBlobContent": "image",
            "fieldValidateRules": [
                "required"
            ]
        }
    ],
    "changelogDate": "20161223225709",
    "entityTableName": "importance",
    "dto": "mapstruct",
    "pagination": "no",
    "service": "serviceImpl",
    "angularJSSuffix": "myAbstract"
}