{
    "fluentMethods": true,
    "relationships": [],
    "fields": [
        {
            "fieldName": "typeStream",
            "fieldType": "String"
        },
        {
            "fieldName": "valeur",
            "fieldType": "String"
        },
        {
            "fieldName": "streamer",
            "fieldType": "String"
        },
        {
            "fieldName": "dateSup",
            "fieldType": "ZonedDateTime"
        }
    ],
    "changelogDate": "20161223225732",
    "entityTableName": "packet_size",
    "dto": "mapstruct",
    "pagination": "pagination",
    "service": "serviceImpl",
    "angularJSSuffix": "myAbstract"
}